{
    "page": 1,
    "total_results": 594,
    "total_pages": 30,
    "results": [
        {
            "popularity": 10.491,
            "vote_count": 812,
            "video": false,
            "poster_path": "\/7nW363kSYRCkr4VGOMvuSGwtzKs.jpg",
            "id": 5723,
            "adult": false,
            "backdrop_path": "\/p1XSyBriqz7oBWoVcRqYlB6Kve3.jpg",
            "original_language": "en",
            "original_title": "Once",
            "genre_ids": [
                18,
                10402,
                10749
            ],
            "title": "Once",
            "vote_average": 7.5,
            "overview": "A vacuum repairman moonlights as a street musician and hopes for his big break. One day a Czech immigrant, who earns a living selling flowers, approaches him with the news that she is also an aspiring singer-songwriter. The pair decide to collaborate, and the songs that they compose reflect the story of their blossoming love.",
            "release_date": "2007-03-23"
        },
        {
            "popularity": 58.063,
            "vote_count": 6150,
            "video": false,
            "poster_path": "\/8j58iEBw9pOXFD2L0nt0ZXeHviB.jpg",
            "id": 466272,
            "adult": false,
            "backdrop_path": "\/er1S5nJyDSkmy7i2KkPMBjbwK8x.jpg",
            "original_language": "en",
            "original_title": "Once Upon a Time… in Hollywood",
            "genre_ids": [
                35,
                18,
                53
            ],
            "title": "Once Upon a Time… in Hollywood",
            "vote_average": 7.5,
            "overview": "Los Angeles, 1969. TV star Rick Dalton, a struggling actor specializing in westerns, and stuntman Cliff Booth, his best friend, try to survive in a constantly changing movie industry. Dalton is the neighbor of the young and promising actress and model Sharon Tate, who has just married the prestigious Polish director Roman Polanski…",
            "release_date": "2019-07-25"
        },
        {
            "popularity": 9.713,
            "vote_count": 156,
            "video": false,
            "poster_path": "\/eK3dxRrMQGpZ1kLD9wdyOI8urFZ.jpg",
            "id": 19064,
            "adult": false,
            "backdrop_path": "\/wXrJOIdxdpwYwlKaeXtUSzYGLoJ.jpg",
            "original_language": "en",
            "original_title": "Once Bitten",
            "genre_ids": [
                35,
                27,
                10749
            ],
            "title": "Once Bitten",
            "vote_average": 5.6,
            "overview": "Mark wants to lose his virginity, but his girlfriend wants to wait. Unfortunately for both of them, a 400-year-old vampire Countess needs to turn a virgin into a vampire before Halloween in order to preserve her own youthful appearance, and when she finds Mark, she turns his life upside-down.",
            "release_date": "1985-11-15"
        },
        {
            "popularity": 16.057,
            "vote_count": 375,
            "video": false,
            "poster_path": "\/5Ka49BWWyKMXr93YMbH5wLN7aAM.jpg",
            "id": 567604,
            "adult": false,
            "backdrop_path": "\/7RqpTZq0mPpTcEwZ6qqwRZAFoLe.jpg",
            "original_language": "en",
            "original_title": "Once Upon a Deadpool",
            "genre_ids": [
                28,
                35
            ],
            "title": "Once Upon a Deadpool",
            "vote_average": 6.9,
            "overview": "A kidnapped Fred Savage is forced to endure Deadpool's PG-13 rendition of Deadpool 2 as a Princess Bride-esque story that's full of magic, wonder & zero F's.",
            "release_date": "2018-12-11"
        },
        {
            "popularity": 21.292,
            "vote_count": 2904,
            "video": false,
            "poster_path": "\/hBDHr3YihnuL46aeyEMhTchXkZP.jpg",
            "id": 311,
            "adult": false,
            "backdrop_path": "\/gUdk0FMw38DSUqpnLLHCAWN60he.jpg",
            "original_language": "en",
            "original_title": "Once Upon a Time in America",
            "genre_ids": [
                80,
                18
            ],
            "title": "Once Upon a Time in America",
            "vote_average": 8.4,
            "overview": "A former Prohibition-era Jewish gangster returns to the Lower East Side of Manhattan over thirty years later, where he once again must confront the ghosts and regrets of his old life.",
            "release_date": "1984-05-23"
        },
        {
            "popularity": 13.953,
            "vote_count": 361,
            "video": false,
            "poster_path": "\/iBmKN7zS8fl0rhgtOr9T8BM90k8.jpg",
            "id": 15400,
            "adult": false,
            "backdrop_path": "\/wYfcAqqIiT7216YE9bKDF3opPBJ.jpg",
            "original_language": "en",
            "original_title": "Mickey's Once Upon a Christmas",
            "genre_ids": [
                16,
                35,
                10751
            ],
            "title": "Mickey's Once Upon a Christmas",
            "vote_average": 7,
            "overview": "Mickey, Minnie, and their famous friends Goofy, Donald, Daisy and Pluto gather together to reminisce about the love, magic and surprises in three wonder-filled stories of Christmas past.",
            "release_date": "1999-10-31"
        },
        {
            "popularity": 8.912,
            "vote_count": 204,
            "video": false,
            "poster_path": "\/1nd4SsytVc96hy92g8NNVPD3mzf.jpg",
            "id": 527,
            "adult": false,
            "backdrop_path": "\/wPApsZx55cmLpd7lEeV29PmjiYl.jpg",
            "original_language": "en",
            "original_title": "Once Were Warriors",
            "genre_ids": [
                18
            ],
            "title": "Once Were Warriors",
            "vote_average": 7.5,
            "overview": "A drama about a Maori family living in Auckland, New Zealand. Lee Tamahori tells the story of Beth Heke’s strong will to keep her family together during times of unemployment and abuse from her violent and alcoholic husband.",
            "release_date": "1994-09-02"
        }
    ]
}
